Account Number,Post Date,Check,Description,Debit,Credit,Status,Balance
*****34953,2024-05-20,2422,CHECK,100.0,,Posted,
*****34953,2024-05-17,,769612 PURCHASE-SIG 05/16 TST* MINNE'S BY MINNEAPOLIS MN 76439798 769612,527.1,,Posted,
*****34953,2024-05-17,,545921 PURCHASE-SIG 05/16 TARGET 00 MINNETONKA MN 08792655 545921,150.86,,Posted,
*****34953,2024-05-13,,465331 PURCHASE-SIG 05/10 USPS PO 26306003 EXCELSIOR MN 90872403 465331,13.6,,Posted,
*****34953,2024-04-23,,628015 PURCHASE-SIG 04/22 SEVEN CORNERS PR 651-2228381 MN 16217381 628015,271.31,,Posted,
*****34953,2024-04-22,,391353 PURCHASE-SIG 04/19 CUB FOODS #1636 SHOREWOOD MN 74180533 391353,125.89,,Posted,
*****34953,2024-04-15,,927262 PURCHASE-SIG 04/12 FEDEX OFFICE 800 PLANO TX 22838270 927262,133.11,,Posted,
*****34953,2024-04-03,2414,CHECK,439.42,,Posted,
*****34953,2024-02-20,,65245 PURCHASE-RECUR 02/18 MSFT * E0300R28F MSBILL.INFO WA 00551080 065245,157.0,,Posted,
*****34953,2024-01-05,2415,CHECK,50.0,,Posted,
*****34953,2023-12-13,2421,CHECK,201.98,,Posted,
*****34953,2023-11-09,2420,CHECK,1925.0,,Posted,
*****34953,2023-10-23,2418,CHECK,1493.0,,Posted,
*****34953,2023-10-23,2417,CHECK,2000.0,,Posted,
*****34953,2023-10-20,2416,CHECK,1997.3,,Posted,
*****34953,2023-10-19,2418,CHECK,1493.0,,Posted,
*****34953,2023-08-28,2411,CHECK,951.0,,Posted,
*****34953,2023-08-14,2410,CHECK,700.0,,Posted,
*****34953,2023-08-07,,207615 PURCHASE-RECUR 08/05 2COCOM*STELLAR Alpharetta GA 92159854 207615,54.0,,Posted,
*****34953,2023-07-12,,338524 PURCHASE-SIG 07/11 FUN JUMPS ENTERT MENDOTA MN 44077839 338524,1783.01,,Posted,
*****34953,2023-07-11,,17524 PURCHASE-SIG 07/10 US LIABILITYINSU 866-632-2003 PA 88484027 017524,832.0,,Posted,
*****34953,2023-07-11,,45247 PURCHASE-SIG 07/10 CUB FOODS BROADW MINNEAPOLIS MN 61752587 045247,20.31,,Posted,
*****34953,2023-06-13,,514404 PURCHASE-SIG 06/12 ROGERS MARKET MINNEAPOLIS MN 39249084 514404,16.59,,Posted,
*****34953,2023-06-12,,927947 PURCHASE-SIG 06/08 HOMEDEPOT.COM 800-430-3376 GA 83411965 927947,55.31,,Posted,
*****34953,2023-06-12,,473161 PURCHASE-SIG 06/08 HOMEDEPOT.COM 800-430-3376 GA 84129764 473161,35.81,,Posted,
*****34953,2023-06-08,,316408 PURCHASE-PIN 06/07 TARGET.COM * BROOKLYN PARK MN 30000001 31584997170,37.85,,Posted,
*****34953,2023-06-07,2397,CHECK,860.36,,Posted,
*****34953,2023-06-07,,719406 PURCHASE-SIG 06/06 CUB FOODS BROADW MINNEAPOLIS US 62998280 719406,66.18,,Posted,
*****34953,2023-06-01,2404,CHECK,60.0,,Posted,
*****34953,2023-05-23,2407,CHECK,157.49,,Posted,
*****34953,2023-05-23,2406,CHECK,350.0,,Posted,
*****34953,2023-05-22,2409,CHECK,125.0,,Posted,
*****34953,2023-05-22,2408,CHECK,200.0,,Posted,
*****34953,2023-05-19,,998067 PURCHASE-SIG 05/18 Bryn Mawr Pizza Minneapolis MN 01356177 998067,364.65,,Posted,
*****34953,2023-05-10,2398,CHECK,11498.35,,Posted,
*****34953,2023-05-08,2403,CHECK,340.1,,Posted,
*****34953,2023-05-08,2402,CHECK,327.75,,Posted,
*****34953,2023-05-05,2401,CHECK,265.0,,Posted,
*****34953,2023-05-03,2396,CHECK,860.36,,Posted,
*****34953,2023-05-03,2395,CHECK,860.36,,Posted,
*****34953,2023-05-02,2400,CHECK,600.0,,Posted,
